hardware_code/SIM/transcript
# //  ModelSim PE Student Edition 10.4a Apr  7 2015 
# //
# //  Copyright 1991-2015 Mentor Graphics Corporation
# //  All Rights Reserved.
# //
# //  THIS WORK CONTAINS TRADE SECRET AND PROPRIETARY INFORMATION
# //  WHICH IS THE PROPERTY OF MENTOR GRAPHICS CORPORATION OR ITS
# //  LICENSORS AND IS SUBJECT TO LICENSE TERMS.
# //  THIS DOCUMENT CONTAINS TRADE SECRETS AND COMMERCIAL OR FINANCIAL
# //  INFORMATION THAT ARE PRIVILEGED, CONFIDENTIAL, AND EXEMPT FROM
# //  DISCLOSURE UNDER THE FREEDOM OF INFORMATION ACT, 5 U.S.C. SECTION 552.
# //  FURTHERMORE, THIS INFORMATION IS PROHIBITED FROM DISCLOSURE UNDER
# //  THE TRADE SECRETS ACT, 18 U.S.C. SECTION 1905.
# //
# // NOT FOR CORPORATE OR PRODUCTION USE.
# // THE ModelSim PE Student Edition IS NOT A SUPPORTED PRODUCT.
# // FOR HIGHER EDUCATION PURPOSES ONLY
# //
# vsim -c -do "run -all" work.top 
# Start time: 00:35:36 on May 29,2017
# Loading sv_std.std
# Loading work.names_I1_sv_unit
# Loading work.top
# Loading work.datapath
# Loading work.select_reg_prime
# Loading work.network_logic
# Loading work.select_reg
# Loading work.register
# Loading work.comparator
# Loading work.controlpath
# Loading work.testbench
# run -all
# ** Warning: (vsim-7) Failed to open readmem file "sync_I5.txt" in read mode.
# 
# No such file or directory. (errno = ENOENT)    : testbench.sv(36)
#    Time: 0 ns  Iteration: 0  Instance: /top/tb
#                    0 start=0, ss=0, network_state=0000000000000000000000000000000000000000000000000000000000000, iteration_number=   0, initial_state = 0000000000000000, seed_num=   0
#                   46 start=1, ss=0, network_state=0000000000000000000000000000000000000000000000000000000000000, iteration_number=   0, initial_state = 0000000000000000, seed_num=   0
#                   55 start=1, ss=1, network_state=0000000000000000000000000000000000000000000000000000000000000, iteration_number=   0, initial_state = 0000000000000000, seed_num=   0
#                   56 start=0, ss=1, network_state=0000000000000000000000000000000000000000000000000000000000000, iteration_number=   0, initial_state = 0000000000000000, seed_num=   0
#                   65 start=0, ss=0, network_state=0000000000000000000000000000000000000000000110000000000000000, iteration_number=   1, initial_state = 0000000000000000, seed_num=   0
#                   75 start=0, ss=0, network_state=0000000000000000000000000000000000000000000110000000000000000, iteration_number=   2, initial_state = 0000000000000000, seed_num=   0
#                   85 start=0, ss=0, network_state=0000000000000000000000000000000001000000000010000000000000000, iteration_number=   3, initial_state = 0000000000000000, seed_num=   0
#                   95 start=0, ss=0, network_state=0000000000000000000000000000000001000000000010000000000000000, iteration_number=   4, initial_state = 0000000000000000, seed_num=   0
#                  105 start=0, ss=0, network_state=0000000000000000000000000000000000001000000011000000000000000, iteration_number=   5, initial_state = 0000000000000000, seed_num=   0
#                  115 start=0, ss=0, network_state=0000000000000000000000000000000000001000000011000000000000000, iteration_number=   6, initial_state = 0000000000000000, seed_num=   0
#                  125 start=0, ss=0, network_state=0000000000000000000000000000000000000000000010100000000000000, iteration_number=   7, initial_state = 0000000000000000, seed_num=   0
#                  135 start=0, ss=0, network_state=0000000000000000000000000000000000000000000010100000000000000, iteration_number=   8, initial_state = 0000000000000000, seed_num=   0
#                  145 start=0, ss=0, network_state=0000000000000000000000000000000000000000000010000000000000000, iteration_number=   9, initial_state = 0000000000000000, seed_num=   0
#                  155 start=0, ss=0, network_state=0000000000000000000000000000000000000000000010000000000000000, iteration_number=  10, initial_state = 0000000000000000, seed_num=   0
#                  165 start=0, ss=1, network_state=0000000000000000000000000000000000000000000010000000000000000, iteration_number=  11, initial_state = 0000000000000000, seed_num=   0
#                  175 start=0, ss=1, network_state=0000000000000000000000000000000000000000000010000000000000000, iteration_number=  12, initial_state = 0000000000000000, seed_num=   0
#                  185 start=0, ss=1, network_state=0000000000000000000000000000000000000000000010000000000000000, iteration_number=  13, initial_state = 0000000000000000, seed_num=   0
#                  195 start=0, ss=1, network_state=0000000000000000000000000000000000000000000010000000000000000, iteration_number=  14, initial_state = 0000000000000000, seed_num=   0
#                  205 start=0, ss=1, network_state=0000000000000000000000000000000000000000000010000000000000000, iteration_number=  15, initial_state = 0000000000000000, seed_num=   0
#                  215 start=0, ss=1, network_state=0000000000000000000000000000000000000000000010000000000000000, iteration_number=  16, initial_state = 0000000000000000, seed_num=   0
#                  225 start=0, ss=1, network_state=0000000000000000000000000000000000000000000010000000000000000, iteration_number=  17, initial_state = 0000000000000000, seed_num=   0
#                  235 start=0, ss=1, network_state=0000000000000000000000000000000000000000000010000000000000000, iteration_number=  18, initial_state = 0000000000000000, seed_num=   0
#                  245 start=0, ss=1, network_state=0000000000000000000000000000000000000000000010000000000000000, iteration_number=  19, initial_state = 0000000000000000, seed_num=   0
#                  255 start=0, ss=1, network_state=0000000000000000000000000000000000000000000010000000000000000, iteration_number=  20, initial_state = 0000000000000000, seed_num=   0
#                  265 start=0, ss=1, network_state=0000000000000000000000000000000000000000000010000000000000000, iteration_number=  21, initial_state = 0000000000000000, seed_num=   0
#                  275 start=0, ss=1, network_state=0000000000000000000000000000000000000000000010000000000000000, iteration_number=  22, initial_state = 0000000000000000, seed_num=   0
#                  285 start=0, ss=1, network_state=0000000000000000000000000000000000000000000010000000000000000, iteration_number=  23, initial_state = 0000000000000000, seed_num=   0
#                  295 start=0, ss=1, network_state=0000000000000000000000000000000000000000000010000000000000000, iteration_number=  24, initial_state = 0000000000000000, seed_num=   0
#                  305 start=0, ss=1, network_state=0000000000000000000000000000000000000000000010000000000000000, iteration_number=  25, initial_state = 0000000000000000, seed_num=   0
#                  315 start=0, ss=1, network_state=0000000000000000000000000000000000000000000010000000000000000, iteration_number=  26, initial_state = 0000000000000000, seed_num=   0
#                  325 start=0, ss=1, network_state=0000000000000000000000000000000000000000000010000000000000000, iteration_number=  27, initial_state = 0000000000000000, seed_num=   0
#                  335 start=0, ss=1, network_state=0000000000000000000000000000000000000000000010000000000000000, iteration_number=  28, initial_state = 0000000000000000, seed_num=   0
#                  345 start=0, ss=1, network_state=0000000000000000000000000000000000000000000010000000000000000, iteration_number=  29, initial_state = 0000000000000000, seed_num=   0
#                  355 start=0, ss=1, network_state=0000000000000000000000000000000000000000000010000000000000000, iteration_number=  30, initial_state = 0000000000000000, seed_num=   0
#                  365 start=0, ss=1, network_state=0000000000000000000000000000000000000000000010000000000000000, iteration_number=  31, initial_state = 0000000000000000, seed_num=   0
#                  375 start=0, ss=1, network_state=0000000000000000000000000000000000000000000010000000000000000, iteration_number=  32, initial_state = 0000000000000000, seed_num=   0
#                  385 start=0, ss=1, network_state=0000000000000000000000000000000000000000000010000000000000000, iteration_number=  33, initial_state = 0000000000000000, seed_num=   0
#                  395 start=0, ss=1, network_state=0000000000000000000000000000000000000000000010000000000000000, iteration_number=  34, initial_state = 0000000000000000, seed_num=   0
#                  405 start=0, ss=1, network_state=0000000000000000000000000000000000000000000010000000000000000, iteration_number=  35, initial_state = 0000000000000000, seed_num=   0
#                  415 start=0, ss=1, network_state=0000000000000000000000000000000000000000000010000000000000000, iteration_number=  36, initial_state = 0000000000000000, seed_num=   0
#                  425 start=0, ss=1, network_state=0000000000000000000000000000000000000000000010000000000000000, iteration_number=  37, initial_state = 0000000000000000, seed_num=   0
#                  435 start=0, ss=1, network_state=0000000000000000000000000000000000000000000010000000000000000, iteration_number=  38, initial_state = 0000000000000000, seed_num=   0
#                  445 start=0, ss=1, network_state=0000000000000000000000000000000000000000000010000000000000000, iteration_number=  39, initial_state = 0000000000000000, seed_num=   0
#                  455 start=0, ss=1, network_state=0000000000000000000000000000000000000000000010000000000000000, iteration_number=  40, initial_state = 0000000000000000, seed_num=   0
#                  465 start=0, ss=1, network_state=0000000000000000000000000000000000000000000010000000000000000, iteration_number=  41, initial_state = 0000000000000000, seed_num=   0
#                  475 start=0, ss=1, network_state=0000000000000000000000000000000000000000000010000000000000000, iteration_number=  42, initial_state = 0000000000000000, seed_num=   0
#                  485 start=0, ss=1, network_state=0000000000000000000000000000000000000000000010000000000000000, iteration_number=  43, initial_state = 0000000000000000, seed_num=   0
#                  495 start=0, ss=1, network_state=0000000000000000000000000000000000000000000010000000000000000, iteration_number=  44, initial_state = 0000000000000000, seed_num=   0
#                  505 start=0, ss=1, network_state=0000000000000000000000000000000000000000000010000000000000000, iteration_number=  45, initial_state = 0000000000000000, seed_num=   0
#                  515 start=0, ss=1, network_state=0000000000000000000000000000000000000000000010000000000000000, iteration_number=  46, initial_state = 0000000000000000, seed_num=   0
#                  525 start=0, ss=1, network_state=0000000000000000000000000000000000000000000010000000000000000, iteration_number=  47, initial_state = 0000000000000000, seed_num=   0
#                  535 start=0, ss=1, network_state=0000000000000000000000000000000000000000000010000000000000000, iteration_number=  48, initial_state = 0000000000000000, seed_num=   0
#                  545 start=0, ss=1, network_state=0000000000000000000000000000000000000000000010000000000000000, iteration_number=  49, initial_state = 0000000000000000, seed_num=   0
#                  555 start=0, ss=1, network_state=0000000000000000000000000000000000000000000010000000000000000, iteration_number=  50, initial_state = 0000000000000000, seed_num=   0
#                  565 start=0, ss=1, network_state=0000000000000000000000000000000000000000000010000000000000000, iteration_number=  51, initial_state = 0000000000000000, seed_num=   1
#                  570 start=0, ss=0, network_state=0000000000000000000000000000000000000000000000000000000000000, iteration_number=  52, initial_state = 0000000000000000, seed_num=   1
#                  580 start=0, ss=0, network_state=0000000000000000000000000000000000000000000000000000000000000, iteration_number=   0, initial_state = 0000000000000000, seed_num=   1
#                  611 start=1, ss=0, network_state=0000000000000000000000000000000000000000000000000000000000000, iteration_number=   0, initial_state = 0000000000000000, seed_num=   1
#                  620 start=1, ss=1, network_state=0000000000000000000000000000000000000000000000000000000000000, iteration_number=   0, initial_state = 0000000000000000, seed_num=   1
#                  621 start=0, ss=1, network_state=0000000000000000000000000000000000000000000000000000000000000, iteration_number=   0, initial_state = 0000000000000000, seed_num=   1
#                  630 start=0, ss=0, network_state=0000000000000000000000000000000000000000000110000000000000000, iteration_number=   1, initial_state = 0000000000000000, seed_num=   1
#                  640 start=0, ss=0, network_state=0000000000000000000000000000000000000000000110000000000000000, iteration_number=   2, initial_state = 0000000000000000, seed_num=   1
#                  650 start=0, ss=0, network_state=0000000000000000000000000000000001000000000010000000000000000, iteration_number=   3, initial_state = 0000000000000000, seed_num=   1
#                  660 start=0, ss=0, network_state=0000000000000000000000000000000001000000000010000000000000000, iteration_number=   4, initial_state = 0000000000000000, seed_num=   1
#                  670 start=0, ss=0, network_state=0000000000000000000000000000000000001000000011000000000000000, iteration_number=   5, initial_state = 0000000000000000, seed_num=   1
#                  680 start=0, ss=0, network_state=0000000000000000000000000000000000001000000011000000000000000, iteration_number=   6, initial_state = 0000000000000000, seed_num=   1
#                  690 start=0, ss=0, network_state=0000000000000000000000000000000000000000000010100000000000000, iteration_number=   7, initial_state = 0000000000000000, seed_num=   1
#                  700 start=0, ss=0, network_state=0000000000000000000000000000000000000000000010100000000000000, iteration_number=   8, initial_state = 0000000000000000, seed_num=   1
#                  710 start=0, ss=0, network_state=0000000000000000000000000000000000000000000010000000000000000, iteration_number=   9, initial_state = 0000000000000000, seed_num=   1
#                  720 start=0, ss=0, network_state=0000000000000000000000000000000000000000000010000000000000000, iteration_number=  10, initial_state = 0000000000000000, seed_num=   1
#                  730 start=0, ss=1, network_state=0000000000000000000000000000000000000000000010000000000000000, iteration_number=  11, initial_state = 0000000000000000, seed_num=   1
#                  740 start=0, ss=1, network_state=0000000000000000000000000000000000000000000010000000000000000, iteration_number=  12, initial_state = 0000000000000000, seed_num=   1
#                  750 start=0, ss=1, network_state=0000000000000000000000000000000000000000000010000000000000000, iteration_number=  13, initial_state = 0000000000000000, seed_num=   1
#                  760 start=0, ss=1, network_state=0000000000000000000000000000000000000000000010000000000000000, iteration_number=  14, initial_state = 0000000000000000, seed_num=   1
#                  770 start=0, ss=1, network_state=0000000000000000000000000000000000000000000010000000000000000, iteration_number=  15, initial_state = 0000000000000000, seed_num=   1
#                  780 start=0, ss=1, network_state=0000000000000000000000000000000000000000000010000000000000000, iteration_number=  16, initial_state = 0000000000000000, seed_num=   1
#                  790 start=0, ss=1, network_state=0000000000000000000000000000000000000000000010000000000000000, iteration_number=  17, initial_state = 0000000000000000, seed_num=   1
#                  800 start=0, ss=1, network_state=0000000000000000000000000000000000000000000010000000000000000, iteration_number=  18, initial_state = 0000000000000000, seed_num=   1
#                  810 start=0, ss=1, network_state=0000000000000000000000000000000000000000000010000000000000000, iteration_number=  19, initial_state = 0000000000000000, seed_num=   1
#                  820 start=0, ss=1, network_state=0000000000000000000000000000000000000000000010000000000000000, iteration_number=  20, initial_state = 0000000000000000, seed_num=   1
#                  830 start=0, ss=1, network_state=0000000000000000000000000000000000000000000010000000000000000, iteration_number=  21, initial_state = 0000000000000000, seed_num=   1
#                  840 start=0, ss=1, network_state=0000000000000000000000000000000000000000000010000000000000000, iteration_number=  22, initial_state = 0000000000000000, seed_num=   1
#                  850 start=0, ss=1, network_state=0000000000000000000000000000000000000000000010000000000000000, iteration_number=  23, initial_state = 0000000000000000, seed_num=   1
#                  860 start=0, ss=1, network_state=0000000000000000000000000000000000000000000010000000000000000, iteration_number=  24, initial_state = 0000000000000000, seed_num=   1
#                  870 start=0, ss=1, network_state=0000000000000000000000000000000000000000000010000000000000000, iteration_number=  25, initial_state = 0000000000000000, seed_num=   1
#                  880 start=0, ss=1, network_state=0000000000000000000000000000000000000000000010000000000000000, iteration_number=  26, initial_state = 0000000000000000, seed_num=   1
#                  890 start=0, ss=1, network_state=0000000000000000000000000000000000000000000010000000000000000, iteration_number=  27, initial_state = 0000000000000000, seed_num=   1
#                  900 start=0, ss=1, network_state=0000000000000000000000000000000000000000000010000000000000000, iteration_number=  28, initial_state = 0000000000000000, seed_num=   1
#                  910 start=0, ss=1, network_state=0000000000000000000000000000000000000000000010000000000000000, iteration_number=  29, initial_state = 0000000000000000, seed_num=   1
#                  920 start=0, ss=1, network_state=0000000000000000000000000000000000000000000010000000000000000, iteration_number=  30, initial_state = 0000000000000000, seed_num=   1
#                  930 start=0, ss=1, network_state=0000000000000000000000000000000000000000000010000000000000000, iteration_number=  31, initial_state = 0000000000000000, seed_num=   1
#                  940 start=0, ss=1, network_state=0000000000000000000000000000000000000000000010000000000000000, iteration_number=  32, initial_state = 0000000000000000, seed_num=   1
#                  950 start=0, ss=1, network_state=0000000000000000000000000000000000000000000010000000000000000, iteration_number=  33, initial_state = 0000000000000000, seed_num=   1
#                  960 start=0, ss=1, network_state=0000000000000000000000000000000000000000000010000000000000000, iteration_number=  34, initial_state = 0000000000000000, seed_num=   1
#                  970 start=0, ss=1, network_state=0000000000000000000000000000000000000000000010000000000000000, iteration_number=  35, initial_state = 0000000000000000, seed_num=   1
#                  980 start=0, ss=1, network_state=0000000000000000000000000000000000000000000010000000000000000, iteration_number=  36, initial_state = 0000000000000000, seed_num=   1
#                  990 start=0, ss=1, network_state=0000000000000000000000000000000000000000000010000000000000000, iteration_number=  37, initial_state = 0000000000000000, seed_num=   1
#                 1000 start=0, ss=1, network_state=0000000000000000000000000000000000000000000010000000000000000, iteration_number=  38, initial_state = 0000000000000000, seed_num=   1
#                 1010 start=0, ss=1, network_state=0000000000000000000000000000000000000000000010000000000000000, iteration_number=  39, initial_state = 0000000000000000, seed_num=   1
#                 1020 start=0, ss=1, network_state=0000000000000000000000000000000000000000000010000000000000000, iteration_number=  40, initial_state = 0000000000000000, seed_num=   1
#                 1030 start=0, ss=1, network_state=0000000000000000000000000000000000000000000010000000000000000, iteration_number=  41, initial_state = 0000000000000000, seed_num=   1
#                 1040 start=0, ss=1, network_state=0000000000000000000000000000000000000000000010000000000000000, iteration_number=  42, initial_state = 0000000000000000, seed_num=   1
#                 1050 start=0, ss=1, network_state=0000000000000000000000000000000000000000000010000000000000000, iteration_number=  43, initial_state = 0000000000000000, seed_num=   1
#                 1060 start=0, ss=1, network_state=0000000000000000000000000000000000000000000010000000000000000, iteration_number=  44, initial_state = 0000000000000000, seed_num=   1
#                 1070 start=0, ss=1, network_state=0000000000000000000000000000000000000000000010000000000000000, iteration_number=  45, initial_state = 0000000000000000, seed_num=   1
#                 1080 start=0, ss=1, network_state=0000000000000000000000000000000000000000000010000000000000000, iteration_number=  46, initial_state = 0000000000000000, seed_num=   1
#                 1090 start=0, ss=1, network_state=0000000000000000000000000000000000000000000010000000000000000, iteration_number=  47, initial_state = 0000000000000000, seed_num=   1
#                 1100 start=0, ss=1, network_state=0000000000000000000000000000000000000000000010000000000000000, iteration_number=  48, initial_state = 0000000000000000, seed_num=   1
#                 1110 start=0, ss=1, network_state=0000000000000000000000000000000000000000000010000000000000000, iteration_number=  49, initial_state = 0000000000000000, seed_num=   1
#                 1120 start=0, ss=1, network_state=0000000000000000000000000000000000000000000010000000000000000, iteration_number=  50, initial_state = 0000000000000000, seed_num=   1
#                 1130 start=0, ss=1, network_state=0000000000000000000000000000000000000000000010000000000000000, iteration_number=  51, initial_state = 0000000000000000, seed_num=   2
#                 1135 start=0, ss=0, network_state=0000000000000000000000000000000000000000000000000000000000000, iteration_number=  52, initial_state = 0000000000000000, seed_num=   2
#                 1145 start=0, ss=0, network_state=0000000000000000000000000000000000000000000000000000000000000, iteration_number=   0, initial_state = 0000000000000000, seed_num=   2
#                 1176 start=1, ss=0, network_state=0000000000000000000000000000000000000000000000000000000000000, iteration_number=   0, initial_state = 0000000000000000, seed_num=   2
#                 1185 start=1, ss=1, network_state=0000000000000000000000000000000000000000000000000000000000000, iteration_number=   0, initial_state = 0000000000000000, seed_num=   2
#                 1186 start=0, ss=1, network_state=0000000000000000000000000000000000000000000000000000000000000, iteration_number=   0, initial_state = 0000000000000000, seed_num=   2
#                 1195 start=0, ss=0, network_state=0000000000000000000000000000000000000000000110000000000000000, iteration_number=   1, initial_state = 0000000000000000, seed_num=   2
#                 1205 start=0, ss=0, network_state=0000000000000000000000000000000000000000000110000000000000000, iteration_number=   2, initial_state = 0000000000000000, seed_num=   2
#                 1215 start=0, ss=0, network_state=0000000000000000000000000000000001000000000010000000000000000, iteration_number=   3, initial_state = 0000000000000000, seed_num=   2
#                 1225 start=0, ss=0, network_state=0000000000000000000000000000000001000000000010000000000000000, iteration_number=   4, initial_state = 0000000000000000, seed_num=   2
#                 1235 start=0, ss=0, network_state=0000000000000000000000000000000000001000000011000000000000000, iteration_number=   5, initial_state = 0000000000000000, seed_num=   2
#                 1245 start=0, ss=0, network_state=0000000000000000000000000000000000001000000011000000000000000, iteration_number=   6, initial_state = 0000000000000000, seed_num=   2
#                 1255 start=0, ss=0, network_state=0000000000000000000000000000000000000000000010100000000000000, iteration_number=   7, initial_state = 0000000000000000, seed_num=   2
#                 1265 start=0, ss=0, network_state=0000000000000000000000000000000000000000000010100000000000000, iteration_number=   8, initial_state = 0000000000000000, seed_num=   2
#                 1275 start=0, ss=0, network_state=0000000000000000000000000000000000000000000010000000000000000, iteration_number=   9, initial_state = 0000000000000000, seed_num=   2
#                 1285 start=0, ss=0, network_state=0000000000000000000000000000000000000000000010000000000000000, iteration_number=  10, initial_state = 0000000000000000, seed_num=   2
#                 1295 start=0, ss=1, network_state=0000000000000000000000000000000000000000000010000000000000000, iteration_number=  11, initial_state = 0000000000000000, seed_num=   2
#                 1305 start=0, ss=1, network_state=0000000000000000000000000000000000000000000010000000000000000, iteration_number=  12, initial_state = 0000000000000000, seed_num=   2
#                 1315 start=0, ss=1, network_state=0000000000000000000000000000000000000000000010000000000000000, iteration_number=  13, initial_state = 0000000000000000, seed_num=   2
#                 1325 start=0, ss=1, network_state=0000000000000000000000000000000000000000000010000000000000000, iteration_number=  14, initial_state = 0000000000000000, seed_num=   2
#                 1335 start=0, ss=1, network_state=0000000000000000000000000000000000000000000010000000000000000, iteration_number=  15, initial_state = 0000000000000000, seed_num=   2
#                 1345 start=0, ss=1, network_state=0000000000000000000000000000000000000000000010000000000000000, iteration_number=  16, initial_state = 0000000000000000, seed_num=   2
#                 1355 start=0, ss=1, network_state=0000000000000000000000000000000000000000000010000000000000000, iteration_number=  17, initial_state = 0000000000000000, seed_num=   2
#                 1365 start=0, ss=1, network_state=0000000000000000000000000000000000000000000010000000000000000, iteration_number=  18, initial_state = 0000000000000000, seed_num=   2
#                 1375 start=0, ss=1, network_state=0000000000000000000000000000000000000000000010000000000000000, iteration_number=  19, initial_state = 0000000000000000, seed_num=   2
#                 1385 start=0, ss=1, network_state=0000000000000000000000000000000000000000000010000000000000000, iteration_number=  20, initial_state = 0000000000000000, seed_num=   2
#                 1395 start=0, ss=1, network_state=0000000000000000000000000000000000000000000010000000000000000, iteration_number=  21, initial_state = 0000000000000000, seed_num=   2
#                 1405 start=0, ss=1, network_state=0000000000000000000000000000000000000000000010000000000000000, iteration_number=  22, initial_state = 0000000000000000, seed_num=   2
#                 1415 start=0, ss=1, network_state=0000000000000000000000000000000000000000000010000000000000000, iteration_number=  23, initial_state = 0000000000000000, seed_num=   2
#                 1425 start=0, ss=1, network_state=0000000000000000000000000000000000000000000010000000000000000, iteration_number=  24, initial_state = 0000000000000000, seed_num=   2
#                 1435 start=0, ss=1, network_state=0000000000000000000000000000000000000000000010000000000000000, iteration_number=  25, initial_state = 0000000000000000, seed_num=   2
#                 1445 start=0, ss=1, network_state=0000000000000000000000000000000000000000000010000000000000000, iteration_number=  26, initial_state = 0000000000000000, seed_num=   2
#                 1455 start=0, ss=1, network_state=0000000000000000000000000000000000000000000010000000000000000, iteration_number=  27, initial_state = 0000000000000000, seed_num=   2
#                 1465 start=0, ss=1, network_state=0000000000000000000000000000000000000000000010000000000000000, iteration_number=  28, initial_state = 0000000000000000, seed_num=   2
#                 1475 start=0, ss=1, network_state=0000000000000000000000000000000000000000000010000000000000000, iteration_number=  29, initial_state = 0000000000000000, seed_num=   2
#                 1485 start=0, ss=1, network_state=0000000000000000000000000000000000000000000010000000000000000, iteration_number=  30, initial_state = 0000000000000000, seed_num=   2
#                 1495 start=0, ss=1, network_state=0000000000000000000000000000000000000000000010000000000000000, iteration_number=  31, initial_state = 0000000000000000, seed_num=   2
#                 1505 start=0, ss=1, network_state=0000000000000000000000000000000000000000000010000000000000000, iteration_number=  32, initial_state = 0000000000000000, seed_num=   2
#                 1515 start=0, ss=1, network_state=0000000000000000000000000000000000000000000010000000000000000, iteration_number=  33, initial_state = 0000000000000000, seed_num=   2
#                 1525 start=0, ss=1, network_state=0000000000000000000000000000000000000000000010000000000000000, iteration_number=  34, initial_state = 0000000000000000, seed_num=   2
#                 1535 start=0, ss=1, network_state=0000000000000000000000000000000000000000000010000000000000000, iteration_number=  35, initial_state = 0000000000000000, seed_num=   2
#                 1545 start=0, ss=1, network_state=0000000000000000000000000000000000000000000010000000000000000, iteration_number=  36, initial_state = 0000000000000000, seed_num=   2
#                 1555 start=0, ss=1, network_state=0000000000000000000000000000000000000000000010000000000000000, iteration_number=  37, initial_state = 0000000000000000, seed_num=   2
#                 1565 start=0, ss=1, network_state=0000000000000000000000000000000000000000000010000000000000000, iteration_number=  38, initial_state = 0000000000000000, seed_num=   2
#                 1575 start=0, ss=1, network_state=0000000000000000000000000000000000000000000010000000000000000, iteration_number=  39, initial_state = 0000000000000000, seed_num=   2
#                 1585 start=0, ss=1, network_state=0000000000000000000000000000000000000000000010000000000000000, iteration_number=  40, initial_state = 0000000000000000, seed_num=   2
#                 1595 start=0, ss=1, network_state=0000000000000000000000000000000000000000000010000000000000000, iteration_number=  41, initial_state = 0000000000000000, seed_num=   2
#                 1605 start=0, ss=1, network_state=0000000000000000000000000000000000000000000010000000000000000, iteration_number=  42, initial_state = 0000000000000000, seed_num=   2
#                 1615 start=0, ss=1, network_state=0000000000000000000000000000000000000000000010000000000000000, iteration_number=  43, initial_state = 0000000000000000, seed_num=   2
#                 1625 start=0, ss=1, network_state=0000000000000000000000000000000000000000000010000000000000000, iteration_number=  44, initial_state = 0000000000000000, seed_num=   2
#                 1635 start=0, ss=1, network_state=0000000000000000000000000000000000000000000010000000000000000, iteration_number=  45, initial_state = 0000000000000000, seed_num=   2
#                 1645 start=0, ss=1, network_state=0000000000000000000000000000000000000000000010000000000000000, iteration_number=  46, initial_state = 0000000000000000, seed_num=   2
#                 1655 start=0, ss=1, network_state=0000000000000000000000000000000000000000000010000000000000000, iteration_number=  47, initial_state = 0000000000000000, seed_num=   2
#                 1665 start=0, ss=1, network_state=0000000000000000000000000000000000000000000010000000000000000, iteration_number=  48, initial_state = 0000000000000000, seed_num=   2
#                 1675 start=0, ss=1, network_state=0000000000000000000000000000000000000000000010000000000000000, iteration_number=  49, initial_state = 0000000000000000, seed_num=   2
#                 1685 start=0, ss=1, network_state=0000000000000000000000000000000000000000000010000000000000000, iteration_number=  50, initial_state = 0000000000000000, seed_num=   2
#                 1695 start=0, ss=1, network_state=0000000000000000000000000000000000000000000010000000000000000, iteration_number=  51, initial_state = 0000000000000000, seed_num=   3
#                 1700 start=0, ss=0, network_state=0000000000000000000000000000000000000000000000000000000000000, iteration_number=  52, initial_state = 0000000000000000, seed_num=   3
#                 1710 start=0, ss=0, network_state=0000000000000000000000000000000000000000000000000000000000000, iteration_number=   0, initial_state = 0000000000000000, seed_num=   3
#                 1741 start=1, ss=0, network_state=0000000000000000000000000000000000000000000000000000000000000, iteration_number=   0, initial_state = 0000000000000000, seed_num=   3
#                 1750 start=1, ss=1, network_state=0000000000000000000000000000000000000000000000000000000000000, iteration_number=   0, initial_state = 0000000000000000, seed_num=   3
#                 1751 start=0, ss=1, network_state=0000000000000000000000000000000000000000000000000000000000000, iteration_number=   0, initial_state = 0000000000000000, seed_num=   3
#                 1760 start=0, ss=0, network_state=0000000000000000000000000000000000000000000110000000000000000, iteration_number=   1, initial_state = 0000000000000000, seed_num=   3
#                 1770 start=0, ss=0, network_state=0000000000000000000000000000000000000000000110000000000000000, iteration_number=   2, initial_state = 0000000000000000, seed_num=   3
#                 1780 start=0, ss=0, network_state=0000000000000000000000000000000001000000000010000000000000000, iteration_number=   3, initial_state = 0000000000000000, seed_num=   3
#                 1790 start=0, ss=0, network_state=0000000000000000000000000000000001000000000010000000000000000, iteration_number=   4, initial_state = 0000000000000000, seed_num=   3
#                 1800 start=0, ss=0, network_state=0000000000000000000000000000000000001000000011000000000000000, iteration_number=   5, initial_state = 0000000000000000, seed_num=   3
#                 1810 start=0, ss=0, network_state=0000000000000000000000000000000000001000000011000000000000000, iteration_number=   6, initial_state = 0000000000000000, seed_num=   3
#                 1820 start=0, ss=0, network_state=0000000000000000000000000000000000000000000010100000000000000, iteration_number=   7, initial_state = 0000000000000000, seed_num=   3
#                 1830 start=0, ss=0, network_state=0000000000000000000000000000000000000000000010100000000000000, iteration_number=   8, initial_state = 0000000000000000, seed_num=   3
#                 1840 start=0, ss=0, network_state=0000000000000000000000000000000000000000000010000000000000000, iteration_number=   9, initial_state = 0000000000000000, seed_num=   3
#                 1850 start=0, ss=0, network_state=0000000000000000000000000000000000000000000010000000000000000, iteration_number=  10, initial_state = 0000000000000000, seed_num=   3
#                 1860 start=0, ss=1, network_state=0000000000000000000000000000000000000000000010000000000000000, iteration_number=  11, initial_state = 0000000000000000, seed_num=   3
#                 1870 start=0, ss=1, network_state=0000000000000000000000000000000000000000000010000000000000000, iteration_number=  12, initial_state = 0000000000000000, seed_num=   3
#                 1880 start=0, ss=1, network_state=0000000000000000000000000000000000000000000010000000000000000, iteration_number=  13, initial_state = 0000000000000000, seed_num=   3
#                 1890 start=0, ss=1, network_state=0000000000000000000000000000000000000000000010000000000000000, iteration_number=  14, initial_state = 0000000000000000, seed_num=   3
#                 1900 start=0, ss=1, network_state=0000000000000000000000000000000000000000000010000000000000000, iteration_number=  15, initial_state = 0000000000000000, seed_num=   3
#                 1910 start=0, ss=1, network_state=0000000000000000000000000000000000000000000010000000000000000, iteration_number=  16, initial_state = 0000000000000000, seed_num=   3
#                 1920 start=0, ss=1, network_state=0000000000000000000000000000000000000000000010000000000000000, iteration_number=  17, initial_state = 0000000000000000, seed_num=   3
#                 1930 start=0, ss=1, network_state=0000000000000000000000000000000000000000000010000000000000000, iteration_number=  18, initial_state = 0000000000000000, seed_num=   3
#                 1940 start=0, ss=1, network_state=0000000000000000000000000000000000000000000010000000000000000, iteration_number=  19, initial_state = 0000000000000000, seed_num=   3
#                 1950 start=0, ss=1, network_state=0000000000000000000000000000000000000000000010000000000000000, iteration_number=  20, initial_state = 0000000000000000, seed_num=   3
#                 1960 start=0, ss=1, network_state=0000000000000000000000000000000000000000000010000000000000000, iteration_number=  21, initial_state = 0000000000000000, seed_num=   3
#                 1970 start=0, ss=1, network_state=0000000000000000000000000000000000000000000010000000000000000, iteration_number=  22, initial_state = 0000000000000000, seed_num=   3
#                 1980 start=0, ss=1, network_state=0000000000000000000000000000000000000000000010000000000000000, iteration_number=  23, initial_state = 0000000000000000, seed_num=   3
#                 1990 start=0, ss=1, network_state=0000000000000000000000000000000000000000000010000000000000000, iteration_number=  24, initial_state = 0000000000000000, seed_num=   3
#                 2000 start=0, ss=1, network_state=0000000000000000000000000000000000000000000010000000000000000, iteration_number=  25, initial_state = 0000000000000000, seed_num=   3
#                 2010 start=0, ss=1, network_state=0000000000000000000000000000000000000000000010000000000000000, iteration_number=  26, initial_state = 0000000000000000, seed_num=   3
#                 2020 start=0, ss=1, network_state=0000000000000000000000000000000000000000000010000000000000000, iteration_number=  27, initial_state = 0000000000000000, seed_num=   3
#                 2030 start=0, ss=1, network_state=0000000000000000000000000000000000000000000010000000000000000, iteration_number=  28, initial_state = 0000000000000000, seed_num=   3
#                 2040 start=0, ss=1, network_state=0000000000000000000000000000000000000000000010000000000000000, iteration_number=  29, initial_state = 0000000000000000, seed_num=   3
